joelmjunior - Superliga de Vôlei Feminino 2021-2022
…
Aces e saques errados (por time em toda a competição)

# A tibble: 145 × 2
    Jogo Partida                                      
   <int> <chr>                                        
 1     1 BRASÍLIA VÔLEI x UNILIFE-MARINGA             
 2     2 DENTIL PRAIA CLUBE x ESPORTE CLUBE PINHEIROS 
 3     3 OSASCO SÃO CRISTOVÃO SAUDE x FLUMINENSE      
 4     4 ITAMBÉ MINAS x COUNTRY CLUB VALINHOS         
 5     5 SESI VOLEI BAURU x SESC RJ FLAMENGO          
 6     6 BARUERI VOLLEYBALL CLUB x CURITIBA VÔLEI     
 7     7 DENTIL PRAIA CLUBE x SESI VOLEI BAURU        
 8     9 FLUMINENSE x BRASÍLIA VÔLEI                  
 9    10 SESC RJ FLAMENGO x OSASCO SÃO CRISTOVÃO SAUDE
10    11 CURITIBA VÔLEI x ESPORTE CLUBE PINHEIROS     
# ℹ 135 more rows
…
Final

# A tibble: 2 × 6
  Cat   Time                aces saquesErrados saqErr_Ace saldo
  <chr> <chr>              <int>         <int>      <dbl> <int>
1 final ITAMBÉ MINAS          11            25       2.27   -14
2 final DENTIL PRAIA CLUBE     7            16       2.29    -9

Quem foi o time vencedor?

Qual a relação entre essas variáveis de saque e o vencedor da partida?

Troféu Viva-Volêi (Melhor jogadora da partida)

# A tibble: 186 × 3
   Jogadora           Time                       trofeu
   <chr>              <chr>                       <int>
 1 ANA CAROLINA SILVA DENTIL PRAIA CLUBE              6
 2 ANNE ELISE BUIJS   DENTIL PRAIA CLUBE              5
 3 JINEIRY MARTINEZ   DENTIL PRAIA CLUBE              4
 4 MACRIS  CARNEIRO   ITAMBÉ MINAS                    4
 5 NIA REED           SESI VOLEI BAURU                4
 6 THAISA DAHER       ITAMBÉ MINAS                    4
 7 THAISINHA SOUZA    SESI VOLEI BAURU                4
 8 CAROL GATTAZ       ITAMBÉ MINAS                    3
 9 CLAUDIA BUENO      DENTIL PRAIA CLUBE              3
10 JOSEFA FABIOLA     OSASCO SÃO CRISTOVÃO SAÚDE      3
# ℹ 176 more rows
